Full Texts of Denis de Rougemont's Books • rougemont
…
Install the package from Github.

# install.packages("remotes")
remotes::install_github("lgnbhl/rougemont")

Usage

Overview of the rougemont dataset.

library(rougemont)
library(tibble)

as_tibble(rougemont)
#> # A tibble: 47,825 x 6
#>    title_book     date  publisher    url_book      url_chapter     text         
#>    <chr>          <chr> <chr>        <chr>         <chr>           <chr>        
#>  1 Les Méfaits d… 1929  Les Petites… https://www.… https://www.un… [p. 7]       
#>  2 Les Méfaits d… 1929  Les Petites… https://www.… https://www.un… Avant-propos…
#>  3 Les Méfaits d… 1929  Les Petites… https://www.… https://www.un… Le dire une …
#>  4 Les Méfaits d… 1929  Les Petites… https://www.… https://www.un… Il ne faut p…
#>  5 Les Méfaits d… 1929  Les Petites… https://www.… https://www.un… Il a paru su…
#>  6 Les Méfaits d… 1929  Les Petites… https://www.… https://www.un… Mon dessein …
#>  7 Les Méfaits d… 1929  Les Petites… https://www.… https://www.un… Nous vivons …
#>  8 Les Méfaits d… 1929  Les Petites… https://www.… https://www.un… D’ailleurs, …
#>  9 Les Méfaits d… 1929  Les Petites… https://www.… https://www.un… — Alors ?    
#> 10 Les Méfaits d… 1929  Les Petites… https://www.… https://www.un… — Justement.…
#> # … with 47,815 more rows

First lines of Denis de Rougemont’s Les Méfaits de l’Instruction publique (1929).

rougemont$text[1:4]
#> [1] "[p. 7]"                                                                                                                                                                           
#> [2] "Avant-propos §"                                                                                                                                                                   
#> [3] "Le dire une bonne fois."                                                                                                                                                          
#> [4] "Il ne faut pas songer à décrire en 40 petites pages tous les méfaits de l’instruction publique. C’est à peine assez pour indiquer leur ordre de grandeur ; à quoi je me bornerai."

The metadata of the Rougemont 2.0 project is also accessible.

as_tibble(rougemont_metadata)
#> # A tibble: 2,646 x 7
#>    url_chapter   title_chapter  url_book   title_book  url_img   publisher date 
#>    <chr>         <chr>          <chr>      <chr>       <chr>     <chr>     <chr>
#>  1 https://www.… Avant-propos   https://w… Les Méfait… https://… Les Peti… 1929 
#>  2 https://www.… 1. Mes prisons https://w… Les Méfait… https://… Les Peti… 1929 
#>  3 https://www.… 2. Descriptio… https://w… Les Méfait… https://… Les Peti… 1929 
#>  4 https://www.… 3. Anatomie d… https://w… Les Méfait… https://… Les Peti… 1929 
#>  5 https://www.… 1. Le program… https://w… Les Méfait… https://… Les Peti… 1929 
#>  6 https://www.… 2. Les examens https://w… Les Méfait… https://… Les Peti… 1929 
#>  7 https://www.… 3. L’égalitar… https://w… Les Méfait… https://… Les Peti… 1929 
#>  8 https://www.… 4. Le gavage   https://w… Les Méfait… https://… Les Peti… 1929 
#>  9 https://www.… 5. La discipl… https://w… Les Méfait… https://… Les Peti… 1929 
#> 10 https://www.… 6. La prépara… https://w… Les Méfait… https://… Les Peti… 1929 
#> # … with 2,636 more rows
…
